…
#### Highest Rated Chocolate Bar(s)

``` r
cacao_df %>%
  select(`Specific Bean Origin or Bar Name`, Rating) %>%
  filter(Rating == max(Rating)) %>%
  group_by(`Specific Bean Origin or Bar Name`) %>%
  arrange(`Specific Bean Origin or Bar Name`) %>%
  slice_head(n=1) 
```

    ## # A tibble: 106 × 2
    ## # Groups:   Specific Bean Origin or Bar Name [106]
    ##    `Specific Bean Origin or Bar Name`               Rating
    ##    <chr>                                             <dbl>
    ##  1 ABOCFA Coop                                           4
    ##  2 Alto Beni, Cru Savage                                 4
    ##  3 Arauca                                                4
    ##  4 Asante                                                4
    ##  5 Bachelor's Hall E., St. Thomas Parish, batch bh1      4
    ##  6 Bali, Sukrama Bros. Farm, Melaya, 62hr C              4
    ##  7 Bejofo, 2019 H., Batch 20                             4
    ##  8 Bejofo, Sambirano V., Akesson E.                      4
    ##  9 Bellavista Coop, #225, LR, MC, CG Exclusive           4
    ## 10 Ben Tre, batch BEN210924 8983                         4
    ## # ℹ 96 more rows
…
#### Bean Origin Countries of 4-Rated Bars

``` r
cacao_df %>%
  select(`Country of Bean Origin`, Rating) %>%
  filter(Rating == max(Rating)) %>%
  group_by(`Country of Bean Origin`) %>%
  summarise(count=n()) %>%
  arrange(desc(count))
```

    ## # A tibble: 25 × 2
    ##    `Country of Bean Origin` count
    ##    <chr>                    <int>
    ##  1 Peru                        20
    ##  2 Venezuela                   20
    ##  3 Madagascar                  11
    ##  4 Ecuador                      9
    ##  5 Blend                        7
    ##  6 Bolivia                      5
    ##  7 Brazil                       5
    ##  8 Colombia                     5
    ##  9 Mexico                       5
    ## 10 Papua New Guinea             4
    ## # ℹ 15 more rows

#### Companies of Highest-Rated Chocolate Bar(s)

``` r
cacao_df %>%
  select(`Company (Manufacturer)`, Rating) %>%
  filter(Rating == max(Rating)) %>%
  group_by(`Company (Manufacturer)`) %>%
  slice_head(n = 1) %>%
  arrange(`Company (Manufacturer)`)
```

    ## # A tibble: 53 × 2
    ## # Groups:   Company (Manufacturer) [53]
    ##    `Company (Manufacturer)` Rating
    ##    <chr>                     <dbl>
    ##  1 A. Morin                      4
    ##  2 AMMA                          4
    ##  3 Amano                         4
    ##  4 Arete                         4
    ##  5 Artisan du Chocolat           4
    ##  6 Bar Au Chocolat               4
    ##  7 Benoit Nihant                 4
    ##  8 Beschle (Felchlin)            4
    ##  9 Bonnat                        4
    ## 10 Brasstown                     4
    ## # ℹ 43 more rows
…
``` r
cacao_df %>%
  select(`Specific Bean Origin or Bar Name`, `Most Memorable Characteristics`, Rating) %>%
  filter(Rating== max(Rating)) %>%
  group_by(`Specific Bean Origin or Bar Name`) %>%
  arrange(`Specific Bean Origin or Bar Name`, `Most Memorable Characteristics`) %>%
  group_by(`Most Memorable Characteristics`) %>%
  separate_longer_delim(c(`Most Memorable Characteristics`), delim=",") %>%
  select(`Most Memorable Characteristics`) %>%
  summarize(count=n()) %>%
  arrange(desc(count)) 
```

    ## # A tibble: 163 × 2
    ##    `Most Memorable Characteristics` count
    ##    <chr>                            <int>
    ##  1 "creamy"                            35
    ##  2 " cocoa"                            22
    ##  3 " nutty"                            15
    ##  4 " spicy"                             6
    ##  5 "complex"                            6
    ##  6 " floral"                            5
    ##  7 "banana"                             5
    ##  8 " coffee"                            4
    ##  9 " complex"                           4
    ## 10 " dried fruit"                       4
    ## # ℹ 153 more rows
…
